I2C_0.2/tb/i2c_waveform.vcd
$date
	Wed May 21 12:00:38 2025
$end

$version
	Synopsys VCS version W-2024.09-SP1_Full64
$end

$timescale
	1ps
$end

$comment Csum: 1 fb7cb09c39b72648 $end


$scope module top $end
$var reg 1 ! clk $end

$scope begin unnamed$$_vcs_3 $end
$upscope $end


$scope begin unnamed$$_vcs_0 $end
$upscope $end


$scope begin unnamed$$_vcs_1 $end
$upscope $end


$scope begin unnamed$$_vcs_2 $end
$upscope $end


$scope begin unnamed$$_vcs_4 $end
$upscope $end


$scope module vif $end
$var reg 1 " clk $end
$var reg 1 # scl $end
$var wire 1 $ sda $end
$var reg 1 % sda_w $end
$var reg 7 & slave_addr [6:0] $end
$var reg 7 ' address [6:0] $end
$var reg 8 ( data [7:0] $end
$var reg 1 ) rw $end

$scope begin unnamed$$_vcs_0 $end
$upscope $end

$upscope $end

$upscope $end

$enddefinitions $end

#0
$dumpvars
1!
bxxxxxxxx (
bxxxxxxx '
b1010101 &
1"
0%
x)
x#
0$
$end
#5000
0!
0"
#10000
1!
1"
#15000
0!
0"
#20000
1!
1"
#25000
0!
0"
#30000
1!
1"
#35000
0!
0"
#40000
1!
1"
#45000
0!
0"
#50000
1!
1"
#55000
0!
0"
#60000
1!
1"
#65000
0!
0"
#70000
1!
1"
#75000
0!
0"
#80000
1!
1"
#85000
0!
0"
#90000
1!
1"
#95000
0!
0"
#100000
1!
1"
#105000
0!
0"
#110000
1!
1"
#115000
0!
0"
#120000
1!
1"
1#
#125000
0!
0"
#130000
1!
1"
0#
#135000
0!
0"
#140000
1!
1"
1#
#145000
0!
0"
#150000
1!
1"
0#
#155000
0!
0"
1%
1$
#160000
1!
1"
1#
#165000
0!
0"
#170000
1!
1"
0#
#175000
0!
0"
0%
0$
#180000
1!
1"
1#
#185000
0!
0"
#190000
1!
1"
0#
#195000
0!
0"
#200000
1!
1"
1#
#205000
0!
0"
#210000
1!
1"
0#
#215000
0!
0"
1%
1$
#220000
1!
1"
1#
#225000
0!
0"
#230000
1!
1"
0#
#235000
0!
0"
0%
0$
#240000
1!
1"
1#
#245000
0!
0"
#250000
1!
1"
0#
#255000
0!
0"
#260000
1!
1"
1#
#265000
0!
0"
#270000
1!
1"
0#
#275000
0!
0"
z%
z$
#280000
1!
1"
#285000
0!
0"
#290000
1!
1"
1#
0%
0$
#295000
0!
0"
#300000
1!
1"
1%
1$
0%
0$
#305000
0!
0"
0#
#310000
1!
1"
1#
#315000
0!
0"
0#
#320000
1!
1"
1#
#325000
0!
0"
0#
#330000
1!
1"
1#
#335000
0!
0"
0#
#340000
1!
1"
1#
#345000
0!
0"
0#
#350000
1!
1"
1#
#355000
0!
0"
0#
#360000
1!
1"
1#
#365000
0!
0"
0#
#370000
1!
1"
1#
#375000
0!
0"
0#
#380000
1!
1"
1#
#385000
0!
0"
0#
#390000
1!
1"
1#
#395000
0!
0"
0#
#400000
1!
1"
1#
#405000
0!
0"
#410000
1!
1"
#415000
0!
0"
#420000
1!
1"
#425000
0!
0"
#430000
1!
1"
0#
#435000
0!
0"
#440000
1!
1"
1#
#445000
0!
0"
#450000
1!
1"
0#
#455000
0!
0"
1%
1$
#460000
1!
1"
1#
#465000
0!
0"
#470000
1!
1"
0#
#475000
0!
0"
0%
0$
#480000
1!
1"
1#
#485000
0!
0"
#490000
1!
1"
0#
#495000
0!
0"
#500000
1!
1"
1#
#505000
0!
0"
#510000
1!
1"
0#
#515000
0!
0"
1%
1$
#520000
1!
1"
1#
#525000
0!
0"
#530000
1!
1"
0#
#535000
0!
0"
0%
0$
#540000
1!
1"
1#
#545000
0!
0"
#550000
1!
1"
0#
#555000
0!
0"
1%
1$
#560000
1!
1"
1#
#565000
0!
0"
#570000
1!
1"
0#
#575000
0!
0"
z%
z$
#580000
1!
1"
#585000
0!
0"
#590000
1!
1"
1#
0%
0$
#595000
0!
0"
#600000
1!
1"
1%
1$
0%
0$
#605000
0!
0"
0#
#610000
1!
1"
1#
#615000
0!
0"
0#
#620000
1!
1"
1#
#625000
0!
0"
0#
#630000
1!
1"
1#
#635000
0!
0"
0#
#640000
1!
1"
1#
#645000
0!
0"
0#
#650000
1!
1"
1#
#655000
0!
0"
0#
#660000
1!
1"
1#
#665000
0!
0"
0#
#670000
1!
1"
1#
#675000
0!
0"
0#
#680000
1!
1"
1#
#685000
0!
0"
0#
#690000
1!
1"
1#
#695000
0!
0"
0#
#700000
1!
1"
1#
#705000
0!
0"
#710000
1!
1"
#715000
0!
0"
1%
1$
#720000
1!
1"
#725000
0!
0"
#730000
1!
1"
0#
#735000
0!
0"
0%
0$
#740000
1!
1"
1#
#745000
0!
0"
#750000
1!
1"
0#
#755000
0!
0"
1%
1$
#760000
1!
1"
1#
#765000
0!
0"
#770000
1!
1"
0#
#775000
0!
0"
0%
0$
#780000
1!
1"
1#
#785000
0!
0"
#790000
1!
1"
0#
#795000
0!
0"
1%
1$
#800000
1!
1"
1#
#805000
0!
0"
#810000
1!
1"
0#
#815000
0!
0"
0%
0$
#820000
1!
1"
1#
#825000
0!
0"
#830000
1!
1"
0#
#835000
0!
0"
1%
1$
#840000
1!
1"
1#
#845000
0!
0"
#850000
1!
1"
0#
#855000
0!
0"
0%
0$
#860000
1!
1"
1#
#865000
0!
0"
#870000
1!
1"
0#
#875000
0!
0"
z%
z$
#880000
1!
1"
#885000
0!
0"
#890000
1!
1"
1#
0%
0$
#895000
0!
0"
#900000
1!
1"
1%
1$
0%
0$
#905000
0!
0"
0#
#910000
1!
1"
1#
#915000
0!
0"
0#
#920000
1!
1"
1#
#925000
0!
0"
0#
#930000
1!
1"
1#
#935000
0!
0"
0#
#940000
1!
1"
1#
#945000
0!
0"
0#
#950000
1!
1"
1#
#955000
0!
0"
0#
#960000
1!
1"
1#
#965000
0!
0"
0#
#970000
1!
1"
1#
#975000
0!
0"
0#
#980000
1!
1"
1#
#985000
0!
0"
0#
#990000
1!
1"
1#
#995000
0!
0"
0#
#1000000
1!
1"
1#
#1005000
0!
0"
#1010000
1!
1"
#1015000
0!
0"
1%
1$
#1020000
1!
1"
#1025000
0!
0"
#1030000
1!
1"
0#
#1035000
0!
0"
0%
0$
#1040000
1!
1"
1#
#1045000
0!
0"
#1050000
1!
1"
0#
#1055000
0!
0"
1%
1$
#1060000
1!
1"
1#
#1065000
0!
0"
#1070000
1!
1"
0#
#1075000
0!
0"
0%
0$
#1080000
1!
1"
1#
#1085000
0!
0"
#1090000
1!
1"
0#
#1095000
0!
0"
1%
1$
#1100000
1!
1"
1#
#1105000
0!
0"
#1110000
1!
1"
0#
#1115000
0!
0"
0%
0$
#1120000
1!
1"
1#
#1125000
0!
0"
#1130000
1!
1"
0#
#1135000
0!
0"
1%
1$
#1140000
1!
1"
1#
#1145000
0!
0"
#1150000
1!
1"
0#
#1155000
0!
0"
#1160000
1!
1"
1#
#1165000
0!
0"
#1170000
1!
1"
0#
#1175000
0!
0"
z%
z$
#1180000
1!
1"
#1185000
0!
0"
#1190000
1!
1"
1#
0%
0$
#1195000
0!
0"
#1200000
1!
1"
1%
1$
