I2C/tb/i2c_waveform.vcd
$date
	Tue May  6 21:17:58 2025
$end

$version
	Synopsys VCS version W-2024.09-SP1_Full64
$end

$timescale
	1ps
$end

$comment Csum: 1 eeecdea645ec1402 $end


$scope module tb_top $end
$var reg 1 ! clk $end
$var reg 1 " rst_n $end

$scope begin unnamed$$_vcs_3 $end
$upscope $end


$scope begin unnamed$$_vcs_0 $end
$upscope $end


$scope begin unnamed$$_vcs_1 $end
$upscope $end


$scope begin unnamed$$_vcs_2 $end
$upscope $end


$scope begin unnamed$$_vcs_4 $end
$upscope $end


$scope module i2c $end
$var reg 1 # clk $end
$var reg 1 $ rst_n $end
$var tri 1 % sda $end
$var reg 1 & sda_drive $end
$var reg 1 ' sda_en $end
$var reg 1 ( scl_slave $end
$var tri 1 ) scl $end
$var reg 1 * scl_drive $end
$var reg 1 + scl_en $end
$var reg 1 , valid $end
$var reg 7 - address [6:0] $end
$var reg 8 . data [7:0] $end
$var reg 1 / rw $end
$var reg 7 0 current_address [6:0] $end
$var reg 1 1 is_address_phase $end
$var reg 1 2 slave_clk_active $end

$scope begin unnamed$$_vcs_0 $end
$upscope $end


$scope begin unnamed$$_vcs_1 $end
$upscope $end

$upscope $end

$upscope $end

$enddefinitions $end

#0
$dumpvars
0!
0"
bxxxxxxxx .
bxxxxxxx -
b0000000 0
0#
11
0$
x/
1*
1+
0(
1&
0'
12
x,
1)
z%
$end
#5000
1!
1#
1'
1%
1(
#10000
0!
0#
#15000
1!
1#
0&
1"
1$
0%
0(
#20000
0!
0#
#25000
1!
1#
0*
0)
1(
#30000
0!
0#
#35000
1!
1#
0(
#40000
0!
0#
#45000
1!
1#
1(
#50000
0!
0#
#55000
1!
1#
1*
1)
0(
#60000
0!
0#
#65000
1!
1#
0*
0'
0)
z%
1(
#70000
0!
0#
#75000
1!
1#
1'
0%
0(
#80000
0!
0#
#85000
1!
1#
1*
1)
1(
#90000
0!
0#
#95000
1!
1#
0*
0'
0)
z%
0(
#100000
0!
0#
#105000
1!
1#
1'
0%
1(
#110000
0!
0#
#115000
1!
1#
1*
1)
0(
#120000
0!
0#
#125000
1!
1#
0*
0'
0)
z%
1(
#130000
0!
0#
#135000
1!
1#
1'
1&
1%
0(
#140000
0!
0#
#145000
1!
1#
1*
1)
1(
#150000
0!
0#
#155000
1!
1#
0*
0'
0)
z%
0(
#160000
0!
0#
#165000
1!
1#
1'
0&
0%
1(
#170000
0!
0#
#175000
1!
1#
1*
1)
0(
#180000
0!
0#
#185000
1!
1#
0*
0'
0)
z%
1(
#190000
0!
0#
#195000
1!
1#
1'
0%
0(
#200000
0!
0#
#205000
1!
1#
1*
1)
1(
#210000
0!
0#
#215000
1!
1#
0*
0'
0)
z%
0(
1&
#220000
0!
0#
#225000
1!
1#
1'
0&
0%
1(
#230000
0!
0#
#235000
1!
1#
1*
1)
0(
#240000
0!
0#
#245000
1!
1#
0*
0'
0)
z%
1(
#250000
0!
0#
#255000
1!
1#
1'
0%
0(
0'
1&
z%
#260000
0!
0#
#265000
1!
1#
1*
1)
1(
#270000
0!
0#
#275000
1!
1#
0*
0)
0(
#280000
0!
0#
#285000
1!
1#
1(
#290000
0!
0#
#295000
1!
1#
0(
#300000
0!
0#
#305000
1!
1#
1(
#310000
0!
0#
#315000
1!
1#
1*
1)
0(
#320000
0!
0#
#325000
1!
1#
1(
#330000
0!
0#
#335000
1!
1#
0(
#340000
0!
0#
#345000
1!
1#
1(
#350000
0!
0#
#355000
1!
1#
0*
0+
z)
0(
#360000
0!
0#
#365000
1!
1#
b0001000 0
0/
b0001000 -
01
1(
1,
b00010000 .
#370000
0!
0#
#375000
1!
1#
0(
0,
1'
0&
0%
#380000
0!
0#
#385000
1!
1#
1(
#390000
0!
0#
#395000
1!
1#
1+
1*
1&
1)
1%
0(
0&
0'
1&
z%
#400000
0!
0#
#405000
1!
1#
0&
1(
#410000
0!
0#
#415000
1!
1#
0*
0)
0(
1&
#420000
0!
0#
#425000
1!
1#
1(
#430000
0!
0#
#435000
1!
1#
1'
0&
0%
0(
#440000
0!
0#
#445000
1!
1#
1*
1)
1(
#450000
0!
0#
#455000
1!
1#
0*
0'
0)
z%
0(
1'
0%
#460000
0!
0#
#465000
1!
1#
1(
#470000
0!
0#
#475000
1!
1#
1*
1)
0(
0'
1&
z%
#480000
0!
0#
#485000
1!
1#
0*
0)
1(
#490000
0!
0#
#495000
1!
1#
1'
0&
0%
0(
#500000
0!
0#
#505000
1!
1#
1*
1)
1(
#510000
0!
0#
#515000
1!
1#
0*
0'
0)
z%
0(
1&
#520000
0!
0#
#525000
1!
1#
1'
1%
1(
#530000
0!
0#
#535000
1!
1#
1*
1)
0(
#540000
0!
0#
#545000
1!
1#
0*
0'
0)
z%
1(
#550000
0!
0#
#555000
1!
1#
1'
0&
0%
0(
#560000
0!
0#
#565000
1!
1#
1*
1)
1(
#570000
0!
0#
#575000
1!
1#
0*
0'
0)
z%
0(
#580000
0!
0#
#585000
1!
1#
1'
0%
1(
#590000
0!
0#
#595000
1!
1#
1*
1)
0(
#600000
0!
0#
#605000
1!
1#
0*
0'
0)
z%
1(
#610000
0!
0#
#615000
1!
1#
1'
0%
0(
#620000
0!
0#
#625000
1!
1#
1*
1)
1(
#630000
0!
0#
#635000
1!
1#
0*
0'
0)
z%
0(
#640000
0!
0#
#645000
1!
1#
1'
1&
1%
1(
#650000
0!
0#
#655000
1!
1#
1*
1)
0(
#660000
0!
0#
#665000
1!
1#
0*
0'
0)
z%
1(
#670000
0!
0#
#675000
1!
1#
0(
#680000
0!
0#
#685000
1!
1#
1(
#690000
0!
0#
#695000
1!
1#
0(
#700000
0!
0#
#705000
1!
1#
1*
1)
1(
#710000
0!
0#
#715000
1!
1#
0(
#720000
0!
0#
#725000
1!
1#
1(
#730000
0!
0#
#735000
1!
1#
0(
1'
0&
0%
#740000
0!
0#
#745000
1!
1#
1(
#750000
0!
0#
#755000
1!
1#
0*
0+
z)
0(
0'
1&
z%
#760000
0!
0#
#765000
1!
1#
1(
1,
b00010001 .
#770000
0!
0#
#775000
1!
1#
0(
0,
1'
0&
0%
#780000
0!
0#
#785000
1!
1#
1(
#790000
0!
0#
#795000
1!
1#
0(
0'
1&
z%
#800000
0!
0#
#805000
1!
1#
1(
#810000
0!
0#
#815000
1!
1#
0(
#820000
0!
0#
#825000
1!
1#
1(
#830000
0!
0#
#835000
1!
1#
0(
#840000
0!
0#
#845000
1!
1#
1(
#850000
0!
0#
#855000
1!
1#
0(
#860000
0!
0#
#865000
1!
1#
1(
#870000
0!
0#
#875000
1!
1#
0(
#880000
0!
0#
#885000
1!
1#
1(
#890000
0!
0#
#895000
1!
1#
0(
#900000
0!
0#
#905000
1!
1#
1(
#910000
0!
0#
#915000
1!
1#
0(
1'
0&
0%
#920000
0!
0#
#925000
1!
1#
1(
#930000
0!
0#
#935000
1!
1#
0(
0'
1&
z%
#940000
0!
0#
#945000
1!
1#
1(
#950000
0!
0#
#955000
1!
1#
0(
#960000
0!
0#
#965000
1!
1#
1(
#970000
0!
0#
#975000
1!
1#
0(
#980000
0!
0#
#985000
1!
1#
1(
#990000
0!
0#
#995000
1!
1#
0(
1'
0&
0%
#1000000
0!
0#
#1005000
1!
1#
1(
#1010000
0!
0#
#1015000
1!
1#
0(
0'
1&
z%
#1020000
0!
0#
#1025000
1!
1#
1(
#1030000
0!
0#
#1035000
1!
1#
0(
1'
0&
0%
#1040000
0!
0#
#1045000
1!
1#
1(
#1050000
0!
0#
#1055000
1!
1#
0(
0'
1&
z%
#1060000
0!
0#
#1065000
1!
1#
1(
#1070000
0!
0#
#1075000
1!
1#
0(
#1080000
0!
0#
#1085000
1!
1#
1(
#1090000
0!
0#
#1095000
1!
1#
0(
#1100000
0!
0#
#1105000
1!
1#
1(
#1110000
0!
0#
#1115000
1!
1#
0(
#1120000
0!
0#
#1125000
1!
1#
1(
#1130000
0!
0#
#1135000
1!
1#
0(
#1140000
0!
0#
#1145000
1!
1#
1(
#1150000
0!
0#
#1155000
1!
1#
0(
#1160000
0!
0#
#1165000
1!
1#
1(
#1170000
0!
0#
#1175000
1!
1#
0(
#1180000
0!
0#
#1185000
1!
1#
1(
#1190000
0!
0#
#1195000
1!
1#
0(
#1200000
0!
0#
#1205000
1!
1#
1(
#1210000
0!
0#
#1215000
1!
1#
0(
#1220000
0!
0#
#1225000
1!
1#
1(
#1230000
0!
0#
#1235000
1!
1#
0(
#1240000
0!
0#
#1245000
1!
1#
1(
#1250000
0!
0#
#1255000
1!
1#
0(
#1260000
0!
0#
#1265000
1!
1#
1(
#1270000
0!
0#
#1275000
1!
1#
0(
#1280000
0!
0#
#1285000
1!
1#
1(
#1290000
0!
0#
#1295000
1!
1#
0(
#1300000
0!
0#
#1305000
1!
1#
1(
#1310000
0!
0#
#1315000
1!
1#
0(
#1320000
0!
0#
#1325000
1!
1#
1(
#1330000
0!
0#
#1335000
1!
1#
0(
#1340000
0!
0#
#1345000
1!
1#
1(
#1350000
0!
0#
#1355000
1!
1#
0(
#1360000
0!
0#
#1365000
1!
1#
1(
#1370000
0!
0#
#1375000
1!
1#
0(
#1380000
0!
0#
#1385000
1!
1#
1(
#1390000
0!
0#
#1395000
1!
1#
0(
#1400000
0!
0#
#1405000
1!
1#
1(
#1410000
0!
0#
#1415000
1!
1#
0(
#1420000
0!
0#
#1425000
1!
1#
1(
#1430000
0!
0#
#1435000
1!
1#
0(
#1440000
0!
0#
#1445000
1!
1#
1(
#1450000
0!
0#
#1455000
1!
1#
0(
#1460000
0!
0#
#1465000
1!
1#
1(
#1470000
0!
0#
#1475000
1!
1#
0(
#1480000
0!
0#
#1485000
1!
1#
1(
#1490000
0!
0#
#1495000
1!
1#
0(
#1500000
0!
0#
#1505000
1!
1#
1(
#1510000
0!
0#
#1515000
1!
1#
0(
#1520000
0!
0#
#1525000
1!
1#
1(
#1530000
0!
0#
#1535000
1!
1#
0(
#1540000
0!
0#
#1545000
1!
1#
1(
#1550000
0!
0#
#1555000
1!
1#
0(
#1560000
0!
0#
#1565000
1!
1#
1(
#1570000
0!
0#
#1575000
1!
1#
0(
#1580000
0!
0#
#1585000
1!
1#
1(
#1590000
0!
0#
#1595000
1!
1#
0(
#1600000
0!
0#
#1605000
1!
1#
1(
#1610000
0!
0#
#1615000
1!
1#
0(
#1620000
0!
0#
#1625000
1!
1#
1(
#1630000
0!
0#
#1635000
1!
1#
0(
#1640000
0!
0#
#1645000
1!
1#
1(
#1650000
0!
0#
#1655000
1!
1#
0(
#1660000
0!
0#
#1665000
1!
1#
1(
#1670000
0!
0#
#1675000
1!
1#
0(
#1680000
0!
0#
#1685000
1!
1#
1(
#1690000
0!
0#
#1695000
1!
1#
0(
#1700000
0!
0#
#1705000
1!
1#
1(
#1710000
0!
0#
#1715000
1!
1#
0(
#1720000
0!
0#
#1725000
1!
1#
1(
#1730000
0!
0#
#1735000
1!
1#
0(
#1740000
0!
0#
#1745000
1!
1#
1(
#1750000
0!
0#
#1755000
1!
1#
0(
#1760000
0!
0#
#1765000
1!
1#
1(
#1770000
0!
0#
#1775000
1!
1#
0(
#1780000
0!
0#
#1785000
1!
1#
1(
#1790000
0!
0#
#1795000
1!
1#
0(
#1800000
0!
0#
#1805000
1!
1#
1(
#1810000
0!
0#
#1815000
1!
1#
0(
#1820000
0!
0#
#1825000
1!
1#
1(
#1830000
0!
0#
#1835000
1!
1#
0(
#1840000
0!
0#
#1845000
1!
1#
1(
#1850000
0!
0#
#1855000
1!
1#
0(
#1860000
0!
0#
#1865000
1!
1#
1(
#1870000
0!
0#
#1875000
1!
1#
0(
#1880000
0!
0#
#1885000
1!
1#
1(
#1890000
0!
0#
#1895000
1!
1#
0(
#1900000
0!
0#
#1905000
1!
1#
1(
#1910000
0!
0#
#1915000
1!
1#
0(
#1920000
0!
0#
#1925000
1!
1#
1(
#1930000
0!
0#
#1935000
1!
1#
0(
#1940000
0!
0#
#1945000
1!
1#
1(
#1950000
0!
0#
#1955000
1!
1#
0(
#1960000
0!
0#
#1965000
1!
1#
1(
#1970000
0!
0#
#1975000
1!
1#
0(
#1980000
0!
0#
#1985000
1!
1#
1(
#1990000
0!
0#
#1995000
1!
1#
0(
#2000000
0!
0#
#2005000
1!
1#
1(
#2010000
0!
0#
#2015000
1!
1#
0(
#2020000
0!
0#
#2025000
1!
1#
1(
#2030000
0!
0#
#2035000
1!
1#
0(
#2040000
0!
0#
#2045000
1!
1#
1(
#2050000
0!
0#
#2055000
1!
1#
0(
#2060000
0!
0#
#2065000
1!
1#
1(
#2070000
0!
0#
#2075000
1!
1#
0(
#2080000
0!
0#
#2085000
1!
1#
1(
#2090000
0!
0#
#2095000
1!
1#
0(
#2100000
0!
0#
#2105000
1!
1#
1(
#2110000
0!
0#
#2115000
1!
1#
0(
#2120000
0!
0#
#2125000
1!
1#
1(
#2130000
0!
0#
#2135000
1!
1#
0(
#2140000
0!
0#
#2145000
1!
1#
1(
#2150000
0!
0#
#2155000
1!
1#
0(
#2160000
0!
0#
#2165000
1!
1#
1(
#2170000
0!
0#
#2175000
1!
1#
0(
#2180000
0!
0#
#2185000
1!
1#
1(
#2190000
0!
0#
#2195000
1!
1#
0(
#2200000
0!
0#
#2205000
1!
1#
1(
#2210000
0!
0#
#2215000
1!
1#
0(
#2220000
0!
0#
#2225000
1!
1#
1(
#2230000
0!
0#
#2235000
1!
1#
0(
#2240000
0!
0#
#2245000
1!
1#
1(
#2250000
0!
0#
#2255000
1!
1#
0(
#2260000
0!
0#
#2265000
1!
1#
1(
#2270000
0!
0#
#2275000
1!
1#
0(
#2280000
0!
0#
#2285000
1!
1#
1(
#2290000
0!
0#
#2295000
1!
1#
0(
#2300000
0!
0#
#2305000
1!
1#
1(
#2310000
0!
0#
#2315000
1!
1#
0(
#2320000
0!
0#
#2325000
1!
1#
1(
#2330000
0!
0#
#2335000
1!
1#
0(
#2340000
0!
0#
#2345000
1!
1#
1(
#2350000
0!
0#
#2355000
1!
1#
0(
#2360000
0!
0#
#2365000
1!
1#
1(
#2370000
0!
0#
#2375000
1!
1#
0(
#2380000
0!
0#
#2385000
1!
1#
1(
#2390000
0!
0#
#2395000
1!
1#
0(
#2400000
0!
0#
#2405000
1!
1#
1(
#2410000
0!
0#
#2415000
1!
1#
0(
#2420000
0!
0#
#2425000
1!
1#
1(
#2430000
0!
0#
#2435000
1!
1#
0(
#2440000
0!
0#
#2445000
1!
1#
1(
#2450000
0!
0#
#2455000
1!
1#
0(
#2460000
0!
0#
#2465000
1!
1#
1(
#2470000
0!
0#
#2475000
1!
1#
0(
#2480000
0!
0#
#2485000
1!
1#
1(
#2490000
0!
0#
#2495000
1!
1#
0(
#2500000
0!
0#
#2505000
1!
1#
1(
#2510000
0!
0#
#2515000
1!
1#
0(
#2520000
0!
0#
#2525000
1!
1#
1(
#2530000
0!
0#
#2535000
1!
1#
0(
#2540000
0!
0#
#2545000
1!
1#
1(
#2550000
0!
0#
#2555000
1!
1#
0(
#2560000
0!
0#
#2565000
1!
1#
1(
#2570000
0!
0#
#2575000
1!
1#
0(
#2580000
0!
0#
#2585000
1!
1#
1(
#2590000
0!
0#
#2595000
1!
1#
0(
#2600000
0!
0#
#2605000
1!
1#
1(
#2610000
0!
0#
#2615000
1!
1#
0(
#2620000
0!
0#
#2625000
1!
1#
1(
#2630000
0!
0#
#2635000
1!
1#
0(
#2640000
0!
0#
#2645000
1!
1#
1(
#2650000
0!
0#
#2655000
1!
1#
0(
#2660000
0!
0#
#2665000
1!
1#
1(
#2670000
0!
0#
#2675000
1!
1#
0(
#2680000
0!
0#
#2685000
1!
1#
1(
#2690000
0!
0#
#2695000
1!
1#
0(
#2700000
0!
0#
#2705000
1!
1#
1(
#2710000
0!
0#
#2715000
1!
1#
0(
#2720000
0!
0#
#2725000
1!
1#
1(
#2730000
0!
0#
#2735000
1!
1#
0(
#2740000
0!
0#
#2745000
1!
1#
1(
#2750000
0!
0#
#2755000
1!
1#
0(
#2760000
0!
0#
#2765000
1!
1#
1(
#2770000
0!
0#
#2775000
1!
1#
0(
#2780000
0!
0#
#2785000
1!
1#
1(
#2790000
0!
0#
#2795000
1!
1#
0(
#2800000
0!
0#
#2805000
1!
1#
1(
#2810000
0!
0#
#2815000
1!
1#
0(
#2820000
0!
0#
#2825000
1!
1#
1(
#2830000
0!
0#
#2835000
1!
1#
0(
#2840000
0!
0#
#2845000
1!
1#
1(
#2850000
0!
0#
#2855000
1!
1#
0(
#2860000
0!
0#
#2865000
1!
1#
1(
#2870000
0!
0#
#2875000
1!
1#
0(
#2880000
0!
0#
#2885000
1!
1#
1(
#2890000
0!
0#
#2895000
1!
1#
0(
#2900000
0!
0#
#2905000
1!
1#
1(
#2910000
0!
0#
#2915000
1!
1#
0(
#2920000
0!
0#
#2925000
1!
1#
1(
#2930000
0!
0#
#2935000
1!
1#
0(
#2940000
0!
0#
#2945000
1!
1#
1(
#2950000
0!
0#
#2955000
1!
1#
0(
#2960000
0!
0#
#2965000
1!
1#
1(
#2970000
0!
0#
#2975000
1!
1#
0(
#2980000
0!
0#
#2985000
1!
1#
1(
#2990000
0!
0#
#2995000
1!
1#
0(
#3000000
0!
0#
#3005000
1!
1#
1(
#3010000
0!
0#
#3015000
1!
1#
0(
#3020000
0!
0#
#3025000
1!
1#
1(
#3030000
0!
0#
#3035000
1!
1#
0(
#3040000
0!
0#
#3045000
1!
1#
1(
#3050000
0!
0#
#3055000
1!
1#
0(
#3060000
0!
0#
#3065000
1!
1#
1(
#3070000
0!
0#
#3075000
1!
1#
0(
#3080000
0!
0#
#3085000
1!
1#
1(
#3090000
0!
0#
#3095000
1!
1#
0(
#3100000
0!
0#
#3105000
1!
1#
1(
#3110000
0!
0#
#3115000
1!
1#
0(
#3120000
0!
0#
#3125000
1!
1#
1(
#3130000
0!
0#
#3135000
1!
1#
0(
#3140000
0!
0#
#3145000
1!
1#
1(
#3150000
0!
0#
#3155000
1!
1#
0(
#3160000
0!
0#
#3165000
1!
1#
1(
#3170000
0!
0#
#3175000
1!
1#
0(
#3180000
0!
0#
#3185000
1!
1#
1(
#3190000
0!
0#
#3195000
1!
1#
0(
#3200000
0!
0#
#3205000
1!
1#
1(
#3210000
0!
0#
#3215000
1!
1#
0(
#3220000
0!
0#
#3225000
1!
1#
1(
#3230000
0!
0#
#3235000
1!
1#
0(
#3240000
0!
0#
#3245000
1!
1#
1(
#3250000
0!
0#
#3255000
1!
1#
0(
#3260000
0!
0#
#3265000
1!
1#
1(
#3270000
0!
0#
#3275000
1!
1#
0(
#3280000
0!
0#
#3285000
1!
1#
1(
#3290000
0!
0#
#3295000
1!
1#
0(
#3300000
0!
0#
#3305000
1!
1#
1(
#3310000
0!
0#
#3315000
1!
1#
0(
#3320000
0!
0#
#3325000
1!
1#
1(
#3330000
0!
0#
#3335000
1!
1#
0(
#3340000
0!
0#
#3345000
1!
1#
1(
#3350000
0!
0#
#3355000
1!
1#
0(
#3360000
0!
0#
#3365000
1!
1#
1(
#3370000
0!
0#
#3375000
1!
1#
0(
#3380000
0!
0#
#3385000
1!
1#
1(
#3390000
0!
0#
#3395000
1!
1#
0(
#3400000
0!
0#
#3405000
1!
1#
1(
#3410000
0!
0#
#3415000
1!
1#
0(
#3420000
0!
0#
#3425000
1!
1#
1(
#3430000
0!
0#
#3435000
1!
1#
0(
#3440000
0!
0#
#3445000
1!
1#
1(
#3450000
0!
0#
#3455000
1!
1#
0(
#3460000
0!
0#
#3465000
1!
1#
1(
#3470000
0!
0#
#3475000
1!
1#
0(
#3480000
0!
0#
#3485000
1!
1#
1(
#3490000
0!
0#
#3495000
1!
1#
0(
#3500000
0!
0#
#3505000
1!
1#
1(
#3510000
0!
0#
#3515000
1!
1#
0(
#3520000
0!
0#
#3525000
1!
1#
1(
#3530000
0!
0#
#3535000
1!
1#
0(
#3540000
0!
0#
#3545000
1!
1#
1(
#3550000
0!
0#
#3555000
1!
1#
0(
#3560000
0!
0#
#3565000
1!
1#
1(
#3570000
0!
0#
#3575000
1!
1#
0(
#3580000
0!
0#
#3585000
1!
1#
1(
#3590000
0!
0#
#3595000
1!
1#
0(
#3600000
0!
0#
#3605000
1!
1#
1(
#3610000
0!
0#
#3615000
1!
1#
0(
#3620000
0!
0#
#3625000
1!
1#
1(
#3630000
0!
0#
#3635000
1!
1#
0(
#3640000
0!
0#
#3645000
1!
1#
1(
#3650000
0!
0#
#3655000
1!
1#
0(
#3660000
0!
0#
#3665000
1!
1#
1(
#3670000
0!
0#
#3675000
1!
1#
0(
#3680000
0!
0#
#3685000
1!
1#
1(
#3690000
0!
0#
#3695000
1!
1#
0(
#3700000
0!
0#
#3705000
1!
1#
1(
#3710000
0!
0#
#3715000
1!
1#
0(
#3720000
0!
0#
#3725000
1!
1#
1(
#3730000
0!
0#
#3735000
1!
1#
0(
#3740000
0!
0#
#3745000
1!
1#
1(
#3750000
0!
0#
#3755000
1!
1#
0(
#3760000
0!
0#
#3765000
1!
1#
1(
#3770000
0!
0#
#3775000
1!
1#
0(
#3780000
0!
0#
#3785000
1!
1#
1(
#3790000
0!
0#
#3795000
1!
1#
0(
#3800000
0!
0#
#3805000
1!
1#
1(
#3810000
0!
0#
#3815000
1!
1#
0(
#3820000
0!
0#
#3825000
1!
1#
1(
#3830000
0!
0#
#3835000
1!
1#
0(
#3840000
0!
0#
#3845000
1!
1#
1(
#3850000
0!
0#
#3855000
1!
1#
0(
#3860000
0!
0#
#3865000
1!
1#
1(
#3870000
0!
0#
#3875000
1!
1#
0(
#3880000
0!
0#
#3885000
1!
1#
1(
#3890000
0!
0#
#3895000
1!
1#
0(
#3900000
0!
0#
#3905000
1!
1#
1(
#3910000
0!
0#
#3915000
1!
1#
0(
#3920000
0!
0#
#3925000
1!
1#
1(
#3930000
0!
0#
#3935000
1!
1#
0(
#3940000
0!
0#
#3945000
1!
1#
1(
#3950000
0!
0#
#3955000
1!
1#
0(
#3960000
0!
0#
#3965000
1!
1#
1(
#3970000
0!
0#
#3975000
1!
1#
0(
#3980000
0!
0#
#3985000
1!
1#
1(
#3990000
0!
0#
#3995000
1!
1#
0(
#4000000
0!
0#
#4005000
1!
1#
1(
#4010000
0!
0#
#4015000
1!
1#
0(
#4020000
0!
0#
#4025000
1!
1#
1(
#4030000
0!
0#
#4035000
1!
1#
0(
#4040000
0!
0#
#4045000
1!
1#
1(
#4050000
0!
0#
#4055000
1!
1#
0(
#4060000
0!
0#
#4065000
1!
1#
1(
#4070000
0!
0#
#4075000
1!
1#
0(
#4080000
0!
0#
#4085000
1!
1#
1(
#4090000
0!
0#
#4095000
1!
1#
0(
#4100000
0!
0#
#4105000
1!
1#
1(
#4110000
0!
0#
#4115000
1!
1#
0(
#4120000
0!
0#
#4125000
1!
1#
1(
#4130000
0!
0#
#4135000
1!
1#
0(
#4140000
0!
0#
#4145000
1!
1#
1(
#4150000
0!
0#
#4155000
1!
1#
0(
#4160000
0!
0#
#4165000
1!
1#
1(
#4170000
0!
0#
#4175000
1!
1#
0(
#4180000
0!
0#
#4185000
1!
1#
1(
#4190000
0!
0#
#4195000
1!
1#
0(
#4200000
0!
0#
#4205000
1!
1#
1(
#4210000
0!
0#
#4215000
1!
1#
0(
#4220000
0!
0#
#4225000
1!
1#
1(
#4230000
0!
0#
#4235000
1!
1#
0(
#4240000
0!
0#
#4245000
1!
1#
1(
#4250000
0!
0#
#4255000
1!
1#
0(
#4260000
0!
0#
#4265000
1!
1#
1(
#4270000
0!
0#
#4275000
1!
1#
0(
#4280000
0!
0#
#4285000
1!
1#
1(
#4290000
0!
0#
#4295000
1!
1#
0(
#4300000
0!
0#
#4305000
1!
1#
1(
#4310000
0!
0#
#4315000
1!
1#
0(
#4320000
0!
0#
#4325000
1!
1#
1(
#4330000
0!
0#
#4335000
1!
1#
0(
#4340000
0!
0#
#4345000
1!
1#
1(
#4350000
0!
0#
#4355000
1!
1#
0(
#4360000
0!
0#
#4365000
1!
1#
1(
#4370000
0!
0#
#4375000
1!
1#
0(
#4380000
0!
0#
#4385000
1!
1#
1(
#4390000
0!
0#
#4395000
1!
1#
0(
#4400000
0!
0#
#4405000
1!
1#
1(
#4410000
0!
0#
#4415000
1!
1#
0(
#4420000
0!
0#
#4425000
1!
1#
1(
#4430000
0!
0#
#4435000
1!
1#
0(
#4440000
0!
0#
#4445000
1!
1#
1(
#4450000
0!
0#
#4455000
1!
1#
0(
#4460000
0!
0#
#4465000
1!
1#
1(
#4470000
0!
0#
#4475000
1!
1#
0(
#4480000
0!
0#
#4485000
1!
1#
1(
#4490000
0!
0#
#4495000
1!
1#
0(
#4500000
0!
0#
#4505000
1!
1#
1(
#4510000
0!
0#
#4515000
1!
1#
0(
#4520000
0!
0#
#4525000
1!
1#
1(
#4530000
0!
0#
#4535000
1!
1#
0(
#4540000
0!
0#
#4545000
1!
1#
1(
#4550000
0!
0#
#4555000
1!
1#
0(
#4560000
0!
0#
#4565000
1!
1#
1(
#4570000
0!
0#
#4575000
1!
1#
0(
#4580000
0!
0#
#4585000
1!
1#
1(
#4590000
0!
0#
#4595000
1!
1#
0(
#4600000
0!
0#
#4605000
1!
1#
1(
#4610000
0!
0#
#4615000
1!
1#
0(
#4620000
0!
0#
#4625000
1!
1#
1(
#4630000
0!
0#
#4635000
1!
1#
0(
#4640000
0!
0#
#4645000
1!
1#
1(
#4650000
0!
0#
#4655000
1!
1#
0(
#4660000
0!
0#
#4665000
1!
1#
1(
#4670000
0!
0#
#4675000
1!
1#
0(
#4680000
0!
0#
#4685000
1!
1#
1(
#4690000
0!
0#
#4695000
1!
1#
0(
#4700000
0!
0#
#4705000
1!
1#
1(
#4710000
0!
0#
#4715000
1!
1#
0(
#4720000
0!
0#
#4725000
1!
1#
1(
#4730000
0!
0#
#4735000
1!
1#
0(
#4740000
0!
0#
#4745000
1!
1#
1(
#4750000
0!
0#
#4755000
1!
1#
0(
#4760000
0!
0#
#4765000
1!
1#
1(
#4770000
0!
0#
#4775000
1!
1#
0(
#4780000
0!
0#
#4785000
1!
1#
1(
#4790000
0!
0#
#4795000
1!
1#
0(
#4800000
0!
0#
#4805000
1!
1#
1(
#4810000
0!
0#
#4815000
1!
1#
0(
#4820000
0!
0#
#4825000
1!
1#
1(
#4830000
0!
0#
#4835000
1!
1#
0(
#4840000
0!
0#
#4845000
1!
1#
1(
#4850000
0!
0#
#4855000
1!
1#
0(
#4860000
0!
0#
#4865000
1!
1#
1(
#4870000
0!
0#
#4875000
1!
1#
0(
#4880000
0!
0#
#4885000
1!
1#
1(
#4890000
0!
0#
#4895000
1!
1#
0(
#4900000
0!
0#
#4905000
1!
1#
1(
#4910000
0!
0#
#4915000
1!
1#
0(
#4920000
0!
0#
#4925000
1!
1#
1(
#4930000
0!
0#
#4935000
1!
1#
0(
#4940000
0!
0#
#4945000
1!
1#
1(
#4950000
0!
0#
#4955000
1!
1#
0(
#4960000
0!
0#
#4965000
1!
1#
1(
#4970000
0!
0#
#4975000
1!
1#
0(
#4980000
0!
0#
#4985000
1!
1#
1(
#4990000
0!
0#
#4995000
1!
1#
0(
